
        印刷便捷，诚信服实，快乐工作就是---印德乐不干胶印刷你真诚的帮手。
对于各位看客想了解不干胶的算法，我给出如下通用的方法，希望对大家有帮助，具体的单品算法，特殊性的单品不计入内，仅供参考。
彩色不干胶贴：   

小批量彩印胶贴3000小标起印，80平方米以内收100元模版费(限直角)，   

其他按大批量印刷的价格每平方厘米n元计算。［注：不足3000小标以3000计算。］   

大批量彩印胶贴不加收模版费，每平方厘米以n元计算。   

量大每种规格数量超200平方米的价格面议。  

覆膜以每平方厘米0.0001元计算。总价不满50的，以50计算   

算法举例：  

1.我要做3×4的全彩不干胶2000个，怎么计算价格？  

3×4×3000（由于不满3000个按3000计）×0.0007+100（版费）=125元  

2.我要做6×8的全彩不干胶4000个，怎么计算价格？  

6×8×4000×0.0007+100（版费）=234元   

黑白不干胶贴：   

每个规格不足2平方米的数量，按45元/种（包括版费）。   

多种型号同规格每种不足2平方米的数量按35元/种（包括版费） 。  

50平方米数量以上按每平方厘米n计算。   

特大量每规格数量超200平方米的价格面议。  

覆膜以每平方厘米0.0001元计算。总价不满50的，以50计算  

算法举例：  

1.我要做3×4的黑色不干2000个，怎么计算价格？  

3×4×3000（由于不满3000个按3000计）×0.0004+30（版费）=44元  

2.我要做6×8的黑色不干胶4000个，怎么计算价格？  

6×8×4000×0.0004+30（版费）=106元   
 
因用纸的平方厘米价不一样，所以用n替代。